desktop6
man jul  5 22:59:00 CEST 2021


//************Louise & Siv's queries with age************//
8. P(∀ n ∈  (1,N) · aₙ = GOVAGE →  dₙ=Ill)                                    = 0.026199999999999134
9. P(∀ n ∈  (1,N) · aₙ = GOVAGE ∧ zₙ = GOVZIPCODE  →  dₙ=Ill)                 = 0.9855999999999983
10. P(∀ n ∈  (1,N) · aₙ = GOVAGE ∧ bₙ = GOVBDAY  →  dₙ=Ill)                    = 0.9915999999999958
11. P(∀ n ∈  (1,N) · aₙ = GOVAGE ∧ bₙ = GOVSEX  →  dₙ=Ill)                      = 0.15919999999999535
12. P(∀ n ∈  (1,N) · aₙ = GOVAGE ∧ zₙ = GOVZIPCODE ∧ bₙ = GOVBDAY  →  dₙ=Ill)   = 1.0
13. P(∀ n ∈  (1,N) · aₙ = GOVAGE ∧ zₙ = GOVZIPCODE ∧ sₙ = GOVSEX  →  dₙ=Ill)   = 0.9933999999999957
14. P(∀ n ∈  (1,N) · aₙ = GOVAGE ∧ zₙ = GOVZIPCODE ∧ bₙ = GOVBDAY ∧ sₙ = GOVSEX  →  dₙ=Ill)   = 1.0
xdg-open: no method available for opening '/home/raup/governor-params/49/numgovage.html'
xdg-open: no method available for opening '/home/raup/governor-params/49/numgovillage.html'
man jul  5 23:07:46 CEST 2021
