desktop4
man jul  5 22:33:56 CEST 2021


//************Louise & Siv's queries with age************//
8. P(∀ n ∈  (1,N) · aₙ = GOVAGE →  dₙ=Ill)                                    = 0.02819999999999908
9. P(∀ n ∈  (1,N) · aₙ = GOVAGE ∧ zₙ = GOVZIPCODE  →  dₙ=Ill)                 = 0.9821999999999995
10. P(∀ n ∈  (1,N) · aₙ = GOVAGE ∧ bₙ = GOVBDAY  →  dₙ=Ill)                    = 0.9895999999999973
11. P(∀ n ∈  (1,N) · aₙ = GOVAGE ∧ bₙ = GOVSEX  →  dₙ=Ill)                      = 0.17179999999999568
12. P(∀ n ∈  (1,N) · aₙ = GOVAGE ∧ zₙ = GOVZIPCODE ∧ bₙ = GOVBDAY  →  dₙ=Ill)   = 1.0
13. P(∀ n ∈  (1,N) · aₙ = GOVAGE ∧ zₙ = GOVZIPCODE ∧ sₙ = GOVSEX  →  dₙ=Ill)   = 0.9911999999999966
14. P(∀ n ∈  (1,N) · aₙ = GOVAGE ∧ zₙ = GOVZIPCODE ∧ bₙ = GOVBDAY ∧ sₙ = GOVSEX  →  dₙ=Ill)   = 1.0
xdg-open: no method available for opening '/home/raup/governor-params/35/numgovage.html'
xdg-open: no method available for opening '/home/raup/governor-params/35/numgovillage.html'
man jul  5 22:42:48 CEST 2021
