desktop6
tir jul  6 00:09:39 CEST 2021


//************Louise & Siv's queries with age************//
8. P(∀ n ∈  (1,N) · aₙ = GOVAGE →  dₙ=Ill)                                    = 0.02819999999999908
9. P(∀ n ∈  (1,N) · aₙ = GOVAGE ∧ zₙ = GOVZIPCODE  →  dₙ=Ill)                 = 0.9823999999999993
10. P(∀ n ∈  (1,N) · aₙ = GOVAGE ∧ bₙ = GOVBDAY  →  dₙ=Ill)                    = 0.9899999999999968
11. P(∀ n ∈  (1,N) · aₙ = GOVAGE ∧ bₙ = GOVSEX  →  dₙ=Ill)                      = 0.16879999999999556
12. P(∀ n ∈  (1,N) · aₙ = GOVAGE ∧ zₙ = GOVZIPCODE ∧ bₙ = GOVBDAY  →  dₙ=Ill)   = 1.0
13. P(∀ n ∈  (1,N) · aₙ = GOVAGE ∧ zₙ = GOVZIPCODE ∧ sₙ = GOVSEX  →  dₙ=Ill)   = 0.9899999999999968
14. P(∀ n ∈  (1,N) · aₙ = GOVAGE ∧ zₙ = GOVZIPCODE ∧ bₙ = GOVBDAY ∧ sₙ = GOVSEX  →  dₙ=Ill)   = 1.0
xdg-open: no method available for opening '/home/raup/governor-params/100/numgovage.html'
xdg-open: no method available for opening '/home/raup/governor-params/100/numgovillage.html'
tir jul  6 00:18:03 CEST 2021
