﻿Interval Start;Interval End;FemaleShare;MaleShare
0;9;0.002329094109;0.002088795172
10;19;0.005963840842;0.005447222111
20;29;0.008632034488;0.00706261236
30;39;0.007092192755;0.005793584565
40;49;0.007442875777;0.005706735413
50;59;0.00678074907;0.005506930192
60;69;0.004026559538;0.004202530167
70;79;0.002990027135;0.003504739656
80;89;0.004901044239;0.004837322401
90;200;0.00771712715;0.007236320664
