desktop1
tir jul  6 00:17:36 CEST 2021


//************Louise & Siv's queries with age************//
8. P(∀ n ∈  (1,N) · aₙ = GOVAGE →  dₙ=Ill)                                    = 0.028599999999999053
9. P(∀ n ∈  (1,N) · aₙ = GOVAGE ∧ zₙ = GOVZIPCODE  →  dₙ=Ill)                 = 0.9857999999999983
10. P(∀ n ∈  (1,N) · aₙ = GOVAGE ∧ bₙ = GOVBDAY  →  dₙ=Ill)                    = 0.990399999999997
11. P(∀ n ∈  (1,N) · aₙ = GOVAGE ∧ bₙ = GOVSEX  →  dₙ=Ill)                      = 0.16459999999999533
12. P(∀ n ∈  (1,N) · aₙ = GOVAGE ∧ zₙ = GOVZIPCODE ∧ bₙ = GOVBDAY  →  dₙ=Ill)   = 1.0
13. P(∀ n ∈  (1,N) · aₙ = GOVAGE ∧ zₙ = GOVZIPCODE ∧ sₙ = GOVSEX  →  dₙ=Ill)   = 0.992199999999997
14. P(∀ n ∈  (1,N) · aₙ = GOVAGE ∧ zₙ = GOVZIPCODE ∧ bₙ = GOVBDAY ∧ sₙ = GOVSEX  →  dₙ=Ill)   = 1.0
xdg-open: no method available for opening '/home/raup/governor-params/102/numgovage.html'
xdg-open: no method available for opening '/home/raup/governor-params/102/numgovillage.html'
tir jul  6 00:26:00 CEST 2021
