desktop6
tir jul  6 00:00:10 CEST 2021


//************Louise & Siv's queries with age************//
8. P(∀ n ∈  (1,N) · aₙ = GOVAGE →  dₙ=Ill)                                    = 0.026599999999999128
9. P(∀ n ∈  (1,N) · aₙ = GOVAGE ∧ zₙ = GOVZIPCODE  →  dₙ=Ill)                 = 0.9833999999999997
10. P(∀ n ∈  (1,N) · aₙ = GOVAGE ∧ bₙ = GOVBDAY  →  dₙ=Ill)                    = 0.9941999999999965
11. P(∀ n ∈  (1,N) · aₙ = GOVAGE ∧ bₙ = GOVSEX  →  dₙ=Ill)                      = 0.1651999999999954
12. P(∀ n ∈  (1,N) · aₙ = GOVAGE ∧ zₙ = GOVZIPCODE ∧ bₙ = GOVBDAY  →  dₙ=Ill)   = 1.0
13. P(∀ n ∈  (1,N) · aₙ = GOVAGE ∧ zₙ = GOVZIPCODE ∧ sₙ = GOVSEX  →  dₙ=Ill)   = 0.9911999999999966
14. P(∀ n ∈  (1,N) · aₙ = GOVAGE ∧ zₙ = GOVZIPCODE ∧ bₙ = GOVBDAY ∧ sₙ = GOVSEX  →  dₙ=Ill)   = 1.0
xdg-open: no method available for opening '/home/raup/governor-params/91/numgovage.html'
xdg-open: no method available for opening '/home/raup/governor-params/91/numgovillage.html'
tir jul  6 00:09:38 CEST 2021
